cache_controller_tb.vcd
$date
	Wed Jun  4 22:51:36 2025
$end
$version
	Icarus Verilog
$end
$timescale
	1ps
$end
$scope module cache_controller_tb $end
$var wire 1 ! mem_req_rw $end
$var wire 1 " mem_req_enable $end
$var wire 512 # mem_req_dataout [511:0] $end
$var wire 32 $ mem_req_addr [31:0] $end
$var wire 1 % cpu_res_ready $end
$var wire 32 & cpu_res_dataout [31:0] $end
$var wire 537 ' candidate_write [536:0] $end
$var wire 1 ( cache_rw $end
$var wire 1 ) cache_enable $end
$var wire 4 * bank_selector [3:0] $end
$var wire 2 + age_4 [1:0] $end
$var wire 2 , age_3 [1:0] $end
$var wire 2 - age_2 [1:0] $end
$var wire 2 . age_1 [1:0] $end
$var parameter 32 / AGE_BITS $end
$var parameter 32 0 BANK $end
$var parameter 32 1 BLOCK_DATA_WIDTH $end
$var parameter 32 2 BLOCK_OFFSET $end
$var parameter 32 3 DIRTY_BIT $end
$var parameter 32 4 SETS $end
$var parameter 32 5 SETS_BITS $end
$var parameter 32 6 TAG_BITS $end
$var parameter 32 7 VALID_BIT $end
$var parameter 32 8 WORD_SIZE $end
$var reg 1 9 cache_ready $end
$var reg 537 : candidate_1 [536:0] $end
$var reg 537 ; candidate_2 [536:0] $end
$var reg 537 < candidate_3 [536:0] $end
$var reg 537 = candidate_4 [536:0] $end
$var reg 1 > clk $end
$var reg 32 ? cpu_req_addr [31:0] $end
$var reg 32 @ cpu_req_datain [31:0] $end
$var reg 1 A cpu_req_enable $end
$var reg 1 B cpu_req_rw $end
$var reg 512 C mem_req_datain [511:0] $end
$var reg 1 D mem_req_ready $end
$var reg 1 E rst_n $end
$var reg 512 F test_block_data_candidates [511:0] $end
$var reg 512 G test_block_data_mem [511:0] $end
$var reg 32 H test_word_data [31:0] $end
$scope module uut $end
$var wire 1 9 cache_ready $end
$var wire 537 I candidate_1 [536:0] $end
$var wire 537 J candidate_2 [536:0] $end
$var wire 537 K candidate_3 [536:0] $end
$var wire 537 L candidate_4 [536:0] $end
$var wire 1 > clk $end
$var wire 32 M cpu_req_addr [31:0] $end
$var wire 32 N cpu_req_datain [31:0] $end
$var wire 1 A cpu_req_enable $end
$var wire 1 B cpu_req_rw $end
$var wire 1 O evict $end
$var wire 1 P evict_1 $end
$var wire 1 Q evict_2 $end
$var wire 1 R evict_3 $end
$var wire 1 S evict_4 $end
$var wire 1 T free_banks $end
$var wire 1 U hit $end
$var wire 1 V hit_1 $end
$var wire 1 W hit_2 $end
$var wire 1 X hit_3 $end
$var wire 1 Y hit_4 $end
$var wire 512 Z mem_req_datain [511:0] $end
$var wire 1 D mem_req_ready $end
$var wire 1 [ miss $end
$var wire 1 E rst_n $end
$var wire 512 \ modified_mem_block [511:0] $end
$var wire 512 ] modified_candidate_block [511:0] $end
$var wire 512 ^ mem_req_dataout [511:0] $end
$var wire 3 _ hit_element_age [2:0] $end
$var wire 32 ` cpu_res_dataout [31:0] $end
$var wire 1 a cpu_req_rw_reg $end
$var wire 32 b cpu_req_addr_reg [31:0] $end
$var wire 21 c cpu_addr_tag [20:0] $end
$var wire 7 d cpu_addr_index [6:0] $end
$var wire 4 e cpu_addr_block_offset [3:0] $end
$var wire 537 f candidate_write [536:0] $end
$var wire 1 g candidate_4_valid $end
$var wire 21 h candidate_4_tag [20:0] $end
$var wire 537 i candidate_4_reg [536:0] $end
$var wire 1 j candidate_4_dirty $end
$var wire 2 k candidate_4_age [1:0] $end
$var wire 1 l candidate_3_valid $end
$var wire 21 m candidate_3_tag [20:0] $end
$var wire 537 n candidate_3_reg [536:0] $end
$var wire 1 o candidate_3_dirty $end
$var wire 2 p candidate_3_age [1:0] $end
$var wire 1 q candidate_2_valid $end
$var wire 21 r candidate_2_tag [20:0] $end
$var wire 537 s candidate_2_reg [536:0] $end
$var wire 1 t candidate_2_dirty $end
$var wire 2 u candidate_2_age [1:0] $end
$var wire 1 v candidate_1_valid $end
$var wire 21 w candidate_1_tag [20:0] $end
$var wire 537 x candidate_1_reg [536:0] $end
$var wire 1 y candidate_1_dirty $end
$var wire 2 z candidate_1_age [1:0] $end
$var wire 1 { cache_ready_reg $end
$var wire 1 | cache_ready_intermediate $end
$var wire 4 } bank_selector [3:0] $end
$var wire 2 ~ age_4_miss [1:0] $end
$var wire 2 !" age_4_hit [1:0] $end
$var wire 2 "" age_4 [1:0] $end
$var wire 2 #" age_3_miss [1:0] $end
$var wire 2 $" age_3_hit [1:0] $end
$var wire 2 %" age_3 [1:0] $end
$var wire 2 &" age_2_miss [1:0] $end
$var wire 2 '" age_2_hit [1:0] $end
$var wire 2 (" age_2 [1:0] $end
$var wire 2 )" age_1_miss [1:0] $end
$var wire 2 *" age_1_hit [1:0] $end
$var wire 2 +" age_1 [1:0] $end
$var wire 4 ," LRU_candidate [3:0] $end
$var parameter 32 -" AGE_BITS $end
$var parameter 33 ." AGE_START $end
$var parameter 3 /" ALLOCATE $end
$var parameter 32 0" BANK $end
$var parameter 32 1" BLOCK_DATA_WIDTH $end
$var parameter 32 2" BLOCK_OFFSET $end
$var parameter 3 3" CHECK_HIT $end
$var parameter 32 4" DIRTY_BIT $end
$var parameter 34 5" DIRTY_BIT_START $end
$var parameter 3 6" EVICT $end
$var parameter 3 7" IDLE $end
$var parameter 3 8" SEND_TO_CACHE $end
$var parameter 32 9" SETS $end
$var parameter 32 :" SETS_BITS $end
$var parameter 32 ;" TAG_BITS $end
$var parameter 32 <" TAG_START $end
$var parameter 32 =" VALID_BIT $end
$var parameter 35 >" VALID_BIT_START $end
$var parameter 32 ?" WORD_SIZE $end
$var reg 1 ) cache_enable $end
$var reg 1 ( cache_rw $end
$var reg 512 @" candidate_hit_data [511:0] $end
$var reg 1 % cpu_res_ready $end
$var reg 3 A" current_state [2:0] $end
$var reg 32 B" mem_req_addr [31:0] $end
$var reg 1 " mem_req_enable $end
$var reg 1 ! mem_req_rw $end
$var reg 3 C" next_state [2:0] $end
$scope module R_WRITE_HIT $end
$var wire 4 D" block_offset [3:0] $end
$var wire 512 E" data_in [511:0] $end
$var wire 32 F" data_write [31:0] $end
$var wire 1 G" enable $end
$var parameter 32 H" BLOCK_SIZE $end
$var parameter 32 I" NUM_SEGMENTS $end
$var parameter 32 J" NUM_SEGMENTS_LOG $end
$var parameter 32 K" WORD_SIZE $end
$var reg 512 L" data_out [511:0] $end
$upscope $end
$scope module R_WRITE_MISS $end
$var wire 4 M" block_offset [3:0] $end
$var wire 512 N" data_in [511:0] $end
$var wire 32 O" data_write [31:0] $end
$var wire 1 P" enable $end
$var parameter 32 Q" BLOCK_SIZE $end
$var parameter 32 R" NUM_SEGMENTS $end
$var parameter 32 S" NUM_SEGMENTS_LOG $end
$var parameter 32 T" WORD_SIZE $end
$var reg 512 U" data_out [511:0] $end
$upscope $end
$scope module cache_ready_inter $end
$var wire 1 > clk $end
$var wire 1 9 d $end
$var wire 1 V" load $end
$var wire 1 E rst_n $end
$var parameter 32 W" WIDTH $end
$var reg 1 | q $end
$upscope $end
$scope module cache_ready_reg_delay $end
$var wire 1 > clk $end
$var wire 1 | d $end
$var wire 1 X" load $end
$var wire 1 E rst_n $end
$var parameter 32 Y" WIDTH $end
$var reg 1 { q $end
$upscope $end
$scope module candidate_1_reg_inst $end
$var wire 1 > clk $end
$var wire 537 Z" d [536:0] $end
$var wire 1 [" load $end
$var wire 1 E rst_n $end
$var parameter 36 \" WIDTH $end
$var reg 537 ]" q [536:0] $end
$upscope $end
$scope module candidate_2_reg_inst $end
$var wire 1 > clk $end
$var wire 537 ^" d [536:0] $end
$var wire 1 _" load $end
$var wire 1 E rst_n $end
$var parameter 36 `" WIDTH $end
$var reg 537 a" q [536:0] $end
$upscope $end
$scope module candidate_3_reg_inst $end
$var wire 1 > clk $end
$var wire 537 b" d [536:0] $end
$var wire 1 c" load $end
$var wire 1 E rst_n $end
$var parameter 36 d" WIDTH $end
$var reg 537 e" q [536:0] $end
$upscope $end
$scope module candidate_4_reg_inst $end
$var wire 1 > clk $end
$var wire 537 f" d [536:0] $end
$var wire 1 g" load $end
$var wire 1 E rst_n $end
$var parameter 36 h" WIDTH $end
$var reg 537 i" q [536:0] $end
$upscope $end
$scope module cpu_req_addr_reg_inst $end
$var wire 1 > clk $end
$var wire 32 j" d [31:0] $end
$var wire 1 A load $end
$var wire 1 E rst_n $end
$var parameter 32 k" WIDTH $end
$var reg 32 l" q [31:0] $end
$upscope $end
$scope module cpu_req_rw_reg_inst $end
$var wire 1 > clk $end
$var wire 1 B d $end
$var wire 1 A load $end
$var wire 1 E rst_n $end
$var parameter 32 m" WIDTH $end
$var reg 1 a q $end
$upscope $end
$scope module data_selector $end
$var wire 512 n" block_data [511:0] $end
$var wire 4 o" block_offset [3:0] $end
$var parameter 32 p" BLOCK_DATA_WIDTH $end
$var parameter 32 q" WORD_SIZE $end
$var reg 32 r" selected_word [31:0] $end
$upscope $end
$upscope $end
$scope begin $ivl_for_loop0 $end
$var integer 32 s" i [31:0] $end
$upscope $end
$scope begin $ivl_for_loop1 $end
$var integer 32 t" i [31:0] $end
$upscope $end
$scope task cpu_read $end
$var reg 32 u" addr [31:0] $end
$upscope $end
$scope task cpu_write $end
$var reg 32 v" addr [31:0] $end
$var reg 32 w" data [31:0] $end
$upscope $end
$scope task provide_candidates $end
$var reg 537 x" _candidate1 [536:0] $end
$var reg 537 y" _candidate2 [536:0] $end
$var reg 537 z" _candidate3 [536:0] $end
$var reg 537 {" _candidate4 [536:0] $end
$upscope $end
$scope task wait_for_cache_access $end
$upscope $end
$scope task wait_for_mem_req $end
$upscope $end
$upscope $end
$enddefinitions $end
$comment Show the parameter values. $end
$dumpall
b100000 q"
b1000000000 p"
b1 m"
b100000 k"
b1000011001 h"
b1000011001 d"
b1000011001 `"
b1000011001 \"
b1 Y"
b1 W"
b100000 T"
b100 S"
b10000 R"
b1000000000 Q"
b100000 K"
b100 J"
b10000 I"
b1000000000 H"
b100000 ?"
b1000011000 >"
b1 ="
b1000000000 <"
b10101 ;"
b111 :"
b10000000 9"
b100 8"
b0 7"
b10 6"
b1000010111 5"
b1 4"
b1 3"
b100 2"
b1000000000 1"
b100 0"
b11 /"
b1000010101 ."
b10 -"
b100000 8
b1 7
b10101 6
b111 5
b10000000 4
b1 3
b100 2
b1000000000 1
b100 0
b10 /
$end
#0
$dumpvars
bx {"
bx z"
bx y"
bx x"
bx w"
bx v"
bx u"
b10000 t"
b10000 s"
b10111010110100000000000000000000 r"
b0 o"
b10111010110100000000000000001111101110101101000000000000000011101011101011010000000000000000110110111010110100000000000000001100101110101101000000000000000010111011101011010000000000000000101010111010110100000000000000001001101110101101000000000000000010001011101011010000000000000000011110111010110100000000000000000110101110101101000000000000000001011011101011010000000000000000010010111010110100000000000000000011101110101101000000000000000000101011101011010000000000000000000110111010110100000000000000000000 n"
b0 l"
b0 j"
b0 i"
0g"
bx f"
b0 e"
0c"
bx b"
b0 a"
0_"
bx ^"
b0 ]"
0["
bx Z"
1X"
1V"
b10111010110100000000000000001111101110101101000000000000000011101011101011010000000000000000110110111010110100000000000000001100101110101101000000000000000010111011101011010000000000000000101010111010110100000000000000001001101110101101000000000000000010001011101011010000000000000000011110111010110100000000000000000110101110101101000000000000000001011011101011010000000000000000010010111010110100000000000000000011101110101101000000000000000000101011101011010000000000000000000110111010110100000000000000000000 U"
0P"
b0 O"
b10111010110100000000000000001111101110101101000000000000000011101011101011010000000000000000110110111010110100000000000000001100101110101101000000000000000010111011101011010000000000000000101010111010110100000000000000001001101110101101000000000000000010001011101011010000000000000000011110111010110100000000000000000110101110101101000000000000000001011011101011010000000000000000010010111010110100000000000000000011101110101101000000000000000000101011101011010000000000000000000110111010110100000000000000000000 N"
b0 M"
bx L"
0G"
b0 F"
bx E"
b0 D"
b0 C"
b0 B"
b0 A"
bx @"
b0 ,"
b0 +"
b0 *"
b0 )"
b0 ("
b0 '"
b0 &"
b0 %"
b0 $"
b0 #"
b0 ""
b0 !"
b0 ~
b1 }
0|
0{
b0 z
0y
b0 x
b0 w
0v
b0 u
0t
b0 s
b0 r
0q
b0 p
0o
b0 n
b0 m
0l
b0 k
0j
b0 i
b0 h
0g
b100000000000000000000000010111010110100000000000000001111101110101101000000000000000011101011101011010000000000000000110110111010110100000000000000001100101110101101000000000000000010111011101011010000000000000000101010111010110100000000000000001001101110101101000000000000000010001011101011010000000000000000011110111010110100000000000000000110101110101101000000000000000001011011101011010000000000000000010010111010110100000000000000000011101110101101000000000000000000101011101011010000000000000000000110111010110100000000000000000000 f
b0 e
b0 d
b0 c
b0 b
0a
b10111010110100000000000000000000 `
b0 _
b0zzzzzzzzzzzzzzzzzzzzzzzzzzzzzzzz ^
bx ]
b10111010110100000000000000001111101110101101000000000000000011101011101011010000000000000000110110111010110100000000000000001100101110101101000000000000000010111011101011010000000000000000101010111010110100000000000000001001101110101101000000000000000010001011101011010000000000000000011110111010110100000000000000000110101110101101000000000000000001011011101011010000000000000000010010111010110100000000000000000011101110101101000000000000000000101011101011010000000000000000000110111010110100000000000000000000 \
1[
b10111010110100000000000000001111101110101101000000000000000011101011101011010000000000000000110110111010110100000000000000001100101110101101000000000000000010111011101011010000000000000000101010111010110100000000000000001001101110101101000000000000000010001011101011010000000000000000011110111010110100000000000000000110101110101101000000000000000001011011101011010000000000000000010010111010110100000000000000000011101110101101000000000000000000101011101011010000000000000000000110111010110100000000000000000000 Z
0Y
0X
0W
0V
0U
1T
0S
0R
0Q
0P
0O
b0 N
b0 M
bx L
bx K
bx J
bx I
bx H
b10111010110100000000000000001111101110101101000000000000000011101011101011010000000000000000110110111010110100000000000000001100101110101101000000000000000010111011101011010000000000000000101010111010110100000000000000001001101110101101000000000000000010001011101011010000000000000000011110111010110100000000000000000110101110101101000000000000000001011011101011010000000000000000010010111010110100000000000000000011101110101101000000000000000000101011101011010000000000000000000110111010110100000000000000000000 G
b11001010110010001110000000001111110010101100100011100000000011101100101011001000111000000000110111001010110010001110000000001100110010101100100011100000000010111100101011001000111000000000101011001010110010001110000000001001110010101100100011100000000010001100101011001000111000000000011111001010110010001110000000000110110010101100100011100000000001011100101011001000111000000000010011001010110010001110000000000011110010101100100011100000000000101100101011001000111000000000000111001010110010001110000000000000 F
0E
0D
b10111010110100000000000000001111101110101101000000000000000011101011101011010000000000000000110110111010110100000000000000001100101110101101000000000000000010111011101011010000000000000000101010111010110100000000000000001001101110101101000000000000000010001011101011010000000000000000011110111010110100000000000000000110101110101101000000000000000001011011101011010000000000000000010010111010110100000000000000000011101110101101000000000000000000101011101011010000000000000000000110111010110100000000000000000000 C
0B
0A
b0 @
b0 ?
0>
bx =
bx <
bx ;
bx :
09
b0 .
b0 -
b0 ,
b0 +
b1 *
0)
0(
b100000000000000000000000010111010110100000000000000001111101110101101000000000000000011101011101011010000000000000000110110111010110100000000000000001100101110101101000000000000000010111011101011010000000000000000101010111010110100000000000000001001101110101101000000000000000010001011101011010000000000000000011110111010110100000000000000000110101110101101000000000000000001011011101011010000000000000000010010111010110100000000000000000011101110101101000000000000000000101011101011010000000000000000000110111010110100000000000000000000 '
b10111010110100000000000000000000 &
0%
b0 $
b0zzzzzzzzzzzzzzzzzzzzzzzzzzzzzzzz #
0"
0!
$end
#5000
1>
#10000
0>
1E
#15000
1>
#20000
0>
0E
#25000
1>
#30000
0>
1E
#35000
b111100000000001000101011011001010110010001110000000001111110010101100100011100000000011101100101011001000111000000000110111001010110010001110000000001100110010101100100011100000000010111100101011001000111000000000101011001010110010001110000000001001110010101100100011100000000010001100101011001000111000000000011111001010110010001110000000000110110010101100100011100000000001011100101011001000111000000000010011001010110010001110000000000011110010101100100011100000000000101100101011001000111000000000000111001010110010001110000000000000 =
b111100000000001000101011011001010110010001110000000001111110010101100100011100000000011101100101011001000111000000000110111001010110010001110000000001100110010101100100011100000000010111100101011001000111000000000101011001010110010001110000000001001110010101100100011100000000010001100101011001000111000000000011111001010110010001110000000000110110010101100100011100000000001011100101011001000111000000000010011001010110010001110000000000011110010101100100011100000000000101100101011001000111000000000000111001010110010001110000000000000 L
b111100000000001000101011011001010110010001110000000001111110010101100100011100000000011101100101011001000111000000000110111001010110010001110000000001100110010101100100011100000000010111100101011001000111000000000101011001010110010001110000000001001110010101100100011100000000010001100101011001000111000000000011111001010110010001110000000000110110010101100100011100000000001011100101011001000111000000000010011001010110010001110000000000011110010101100100011100000000000101100101011001000111000000000000111001010110010001110000000000000 f"
b110000000000000010010001111001010110010001110000000001111110010101100100011100000000011101100101011001000111000000000110111001010110010001110000000001100110010101100100011100000000010111100101011001000111000000000101011001010110010001110000000001001110010101100100011100000000010001100101011001000111000000000011111001010110010001110000000000110110010101100100011100000000001011100101011001000111000000000010011001010110010001110000000000011110010101100100011100000000000101100101011001000111000000000000111001010110010001110000000000000 <
b110000000000000010010001111001010110010001110000000001111110010101100100011100000000011101100101011001000111000000000110111001010110010001110000000001100110010101100100011100000000010111100101011001000111000000000101011001010110010001110000000001001110010101100100011100000000010001100101011001000111000000000011111001010110010001110000000000110110010101100100011100000000001011100101011001000111000000000010011001010110010001110000000000011110010101100100011100000000000101100101011001000111000000000000111001010110010001110000000000000 K
b110000000000000010010001111001010110010001110000000001111110010101100100011100000000011101100101011001000111000000000110111001010110010001110000000001100110010101100100011100000000010111100101011001000111000000000101011001010110010001110000000001001110010101100100011100000000010001100101011001000111000000000011111001010110010001110000000000110110010101100100011100000000001011100101011001000111000000000010011001010110010001110000000000011110010101100100011100000000000101100101011001000111000000000000111001010110010001110000000000000 b"
b110100000000011011110111111001010110010001110000000001111110010101100100011100000000011101100101011001000111000000000110111001010110010001110000000001100110010101100100011100000000010111100101011001000111000000000101011001010110010001110000000001001110010101100100011100000000010001100101011001000111000000000011111001010110010001110000000000110110010101100100011100000000001011100101011001000111000000000010011001010110010001110000000000011110010101100100011100000000000101100101011001000111000000000000111001010110010001110000000000000 ;
b110100000000011011110111111001010110010001110000000001111110010101100100011100000000011101100101011001000111000000000110111001010110010001110000000001100110010101100100011100000000010111100101011001000111000000000101011001010110010001110000000001001110010101100100011100000000010001100101011001000111000000000011111001010110010001110000000000110110010101100100011100000000001011100101011001000111000000000010011001010110010001110000000000011110010101100100011100000000000101100101011001000111000000000000111001010110010001110000000000000 J
b110100000000011011110111111001010110010001110000000001111110010101100100011100000000011101100101011001000111000000000110111001010110010001110000000001100110010101100100011100000000010111100101011001000111000000000101011001010110010001110000000001001110010101100100011100000000010001100101011001000111000000000011111001010110010001110000000000110110010101100100011100000000001011100101011001000111000000000010011001010110010001110000000000011110010101100100011100000000000101100101011001000111000000000000111001010110010001110000000000000 ^"
b111000000000010101011110011001010110010001110000000001111110010101100100011100000000011101100101011001000111000000000110111001010110010001110000000001100110010101100100011100000000010111100101011001000111000000000101011001010110010001110000000001001110010101100100011100000000010001100101011001000111000000000011111001010110010001110000000000110110010101100100011100000000001011100101011001000111000000000010011001010110010001110000000000011110010101100100011100000000000101100101011001000111000000000000111001010110010001110000000000000 :
b111000000000010101011110011001010110010001110000000001111110010101100100011100000000011101100101011001000111000000000110111001010110010001110000000001100110010101100100011100000000010111100101011001000111000000000101011001010110010001110000000001001110010101100100011100000000010001100101011001000111000000000011111001010110010001110000000000110110010101100100011100000000001011100101011001000111000000000010011001010110010001110000000000011110010101100100011100000000000101100101011001000111000000000000111001010110010001110000000000000 I
b111000000000010101011110011001010110010001110000000001111110010101100100011100000000011101100101011001000111000000000110111001010110010001110000000001100110010101100100011100000000010111100101011001000111000000000101011001010110010001110000000001001110010101100100011100000000010001100101011001000111000000000011111001010110010001110000000000110110010101100100011100000000001011100101011001000111000000000010011001010110010001110000000000011110010101100100011100000000000101100101011001000111000000000000111001010110010001110000000000000 Z"
b111100000000001000101011011001010110010001110000000001111110010101100100011100000000011101100101011001000111000000000110111001010110010001110000000001100110010101100100011100000000010111100101011001000111000000000101011001010110010001110000000001001110010101100100011100000000010001100101011001000111000000000011111001010110010001110000000000110110010101100100011100000000001011100101011001000111000000000010011001010110010001110000000000011110010101100100011100000000000101100101011001000111000000000000111001010110010001110000000000000 {"
b110000000000000010010001111001010110010001110000000001111110010101100100011100000000011101100101011001000111000000000110111001010110010001110000000001100110010101100100011100000000010111100101011001000111000000000101011001010110010001110000000001001110010101100100011100000000010001100101011001000111000000000011111001010110010001110000000000110110010101100100011100000000001011100101011001000111000000000010011001010110010001110000000000011110010101100100011100000000000101100101011001000111000000000000111001010110010001110000000000000 z"
b110100000000011011110111111001010110010001110000000001111110010101100100011100000000011101100101011001000111000000000110111001010110010001110000000001100110010101100100011100000000010111100101011001000111000000000101011001010110010001110000000001001110010101100100011100000000010001100101011001000111000000000011111001010110010001110000000000110110010101100100011100000000001011100101011001000111000000000010011001010110010001110000000000011110010101100100011100000000000101100101011001000111000000000000111001010110010001110000000000000 y"
b111000000000010101011110011001010110010001110000000001111110010101100100011100000000011101100101011001000111000000000110111001010110010001110000000001100110010101100100011100000000010111100101011001000111000000000101011001010110010001110000000001001110010101100100011100000000010001100101011001000111000000000011111001010110010001110000000000110110010101100100011100000000001011100101011001000111000000000010011001010110010001110000000000011110010101100100011100000000000101100101011001000111000000000000111001010110010001110000000000000 x"
1>
#40000
0>
#45000
b100000000000010101011110010111010110100000000000000001111101110101101000000000000000011101011101011010000000000000000110110111010110100000000000000001100101110101101000000000000000010111011101011010000000000000000101010111010110100000000000000001001101110101101000000000000000010001011101011010000000000000000011110111010110100000000000000000110101110101101000000000000000001011011101011010000000000000000010010111010110100000000000000000011101110101101000000000000000000101011101011010000000000000000000110111010110100000000000000000000 '
b100000000000010101011110010111010110100000000000000001111101110101101000000000000000011101011101011010000000000000000110110111010110100000000000000001100101110101101000000000000000010111011101011010000000000000000101010111010110100000000000000001001101110101101000000000000000010001011101011010000000000000000011110111010110100000000000000000110101110101101000000000000000001011011101011010000000000000000010010111010110100000000000000000011101110101101000000000000000000101011101011010000000000000000000110111010110100000000000000000000 f
b101010111100 c
b10101011110000000000000 b
b10101011110000000000000 l"
b1 C"
1)
b10101011110000000000000 ?
b10101011110000000000000 M
b10101011110000000000000 j"
1A
b10101011110000000000000 u"
1>
#50000
0>
#55000
b1 A"
b1 C"
0)
0A
1>
#60000
0>
#65000
1>
#70000
0>
#75000
1>
#80000
0>
#85000
1|
1["
1_"
1c"
1g"
19
1>
#90000
0>
#95000
b11001010110010001110000000000000 &
b11001010110010001110000000000000 `
b11001010110010001110000000000000 r"
b1z00000000000101010111100zzzzzzzzzzzzzzzzzzzzzzzzzzzzzzzzzzzzzzzzzzzzzzzzzzzzzzzzzzzzzzzzzzzzzzzzzzzzzzzzzzzzzzzzzzzzzzzzzzzzzzzzzzzzzzzzzzzzzzzzzzzzzzzzzzzzzzzzzzzzzzzzzzzzzzzzzzzzzzzzzzzzzzzzzzzzzzzzzzzzzzzzzzzzzzzzzzzzzzzzzzzzzzzzzzzzzzzzzzzzzzzzzzzzzzzzzzzzzzzzzzzzzzzzzzzzzzzzzzzzzzzzzzzzzzzzzzzzzzzzzzzzzzzzzzzzzzzzzzzzzzzzzzzzzzzzzzzzzzzzzzzzzzzzzzzzzzzzzzzzzzzzzzzzzzzzzzzzzzzzzzzzzzzzzzzzzzzzzzzzzzzzzzzzzzzzzzzzzzzzzzzzzzzzzzzzzzzzzzzzzzzzzzzzzzzzzzzzzzzzzzzzzzzzzzzzzzzzzzzzzzzzzzzzzzzzzzzzzzzzzzzzzzzzzzzzzzzzzzzzzzzzzzzzzzzz '
b1z00000000000101010111100zzzzzzzzzzzzzzzzzzzzzzzzzzzzzzzzzzzzzzzzzzzzzzzzzzzzzzzzzzzzzzzzzzzzzzzzzzzzzzzzzzzzzzzzzzzzzzzzzzzzzzzzzzzzzzzzzzzzzzzzzzzzzzzzzzzzzzzzzzzzzzzzzzzzzzzzzzzzzzzzzzzzzzzzzzzzzzzzzzzzzzzzzzzzzzzzzzzzzzzzzzzzzzzzzzzzzzzzzzzzzzzzzzzzzzzzzzzzzzzzzzzzzzzzzzzzzzzzzzzzzzzzzzzzzzzzzzzzzzzzzzzzzzzzzzzzzzzzzzzzzzzzzzzzzzzzzzzzzzzzzzzzzzzzzzzzzzzzzzzzzzzzzzzzzzzzzzzzzzzzzzzzzzzzzzzzzzzzzzzzzzzzzzzzzzzzzzzzzzzzzzzzzzzzzzzzzzzzzzzzzzzzzzzzzzzzzzzzzzzzzzzzzzzzzzzzzzzzzzzzzzzzzzzzzzzzzzzzzzzzzzzzzzzzzzzzzzzzzzzzzzzzzzzzzzzz f
b11001010110010001110000000001111110010101100100011100000000011101100101011001000111000000000110111001010110010001110000000001100110010101100100011100000000010111100101011001000111000000000101011001010110010001110000000001001110010101100100011100000000010001100101011001000111000000000011111001010110010001110000000000110110010101100100011100000000001011100101011001000111000000000010011001010110010001110000000000011110010101100100011100000000000101100101011001000111000000000000111001010110010001110000000000000 n"
0[
b11 +
b11 ""
b1 $"
1U
b1 *
b1 }
b11 !"
b10 '"
b11001010110010001110000000001111110010101100100011100000000011101100101011001000111000000000110111001010110010001110000000001100110010101100100011100000000010111100101011001000111000000000101011001010110010001110000000001001110010101100100011100000000010001100101011001000111000000000011111001010110010001110000000000110110010101100100011100000000001011100101011001000111000000000010011001010110010001110000000000011110010101100100011100000000000101100101011001000111000000000000111001010110010001110000000000000 ]
b11001010110010001110000000001111110010101100100011100000000011101100101011001000111000000000110111001010110010001110000000001100110010101100100011100000000010111100101011001000111000000000101011001010110010001110000000001001110010101100100011100000000010001100101011001000111000000000011111001010110010001110000000000110110010101100100011100000000001011100101011001000111000000000010011001010110010001110000000000011110010101100100011100000000000101100101011001000111000000000000111001010110010001110000000000000 L"
1S
0T
1R
b1 ,
b1 %"
1Q
b10 -
b10 ("
1P
b11001010110010001110000000001111110010101100100011100000000011101100101011001000111000000000110111001010110010001110000000001100110010101100100011100000000010111100101011001000111000000000101011001010110010001110000000001001110010101100100011100000000010001100101011001000111000000000011111001010110010001110000000000110110010101100100011100000000001011100101011001000111000000000010011001010110010001110000000000011110010101100100011100000000000101100101011001000111000000000000111001010110010001110000000000000 @"
b11001010110010001110000000001111110010101100100011100000000011101100101011001000111000000000110111001010110010001110000000001100110010101100100011100000000010111100101011001000111000000000101011001010110010001110000000001001110010101100100011100000000010001100101011001000111000000000011111001010110010001110000000000110110010101100100011100000000001011100101011001000111000000000010011001010110010001110000000000011110010101100100011100000000000101100101011001000111000000000000111001010110010001110000000000000 E"
b10 _
b0 .
b0 +"
b1 #"
b10 &"
1V
b11 )"
b1000 ,"
b10001010110 h
1g
1j
b11 k
b100100011 m
1l
1o
b110111101111 r
1q
1t
b1 u
b101010111100 w
1v
1y
b10 z
b100 C"
b111100000000001000101011011001010110010001110000000001111110010101100100011100000000011101100101011001000111000000000110111001010110010001110000000001100110010101100100011100000000010111100101011001000111000000000101011001010110010001110000000001001110010101100100011100000000010001100101011001000111000000000011111001010110010001110000000000110110010101100100011100000000001011100101011001000111000000000010011001010110010001110000000000011110010101100100011100000000000101100101011001000111000000000000111001010110010001110000000000000 i
b111100000000001000101011011001010110010001110000000001111110010101100100011100000000011101100101011001000111000000000110111001010110010001110000000001100110010101100100011100000000010111100101011001000111000000000101011001010110010001110000000001001110010101100100011100000000010001100101011001000111000000000011111001010110010001110000000000110110010101100100011100000000001011100101011001000111000000000010011001010110010001110000000000011110010101100100011100000000000101100101011001000111000000000000111001010110010001110000000000000 i"
b110000000000000010010001111001010110010001110000000001111110010101100100011100000000011101100101011001000111000000000110111001010110010001110000000001100110010101100100011100000000010111100101011001000111000000000101011001010110010001110000000001001110010101100100011100000000010001100101011001000111000000000011111001010110010001110000000000110110010101100100011100000000001011100101011001000111000000000010011001010110010001110000000000011110010101100100011100000000000101100101011001000111000000000000111001010110010001110000000000000 n
b110000000000000010010001111001010110010001110000000001111110010101100100011100000000011101100101011001000111000000000110111001010110010001110000000001100110010101100100011100000000010111100101011001000111000000000101011001010110010001110000000001001110010101100100011100000000010001100101011001000111000000000011111001010110010001110000000000110110010101100100011100000000001011100101011001000111000000000010011001010110010001110000000000011110010101100100011100000000000101100101011001000111000000000000111001010110010001110000000000000 e"
b110100000000011011110111111001010110010001110000000001111110010101100100011100000000011101100101011001000111000000000110111001010110010001110000000001100110010101100100011100000000010111100101011001000111000000000101011001010110010001110000000001001110010101100100011100000000010001100101011001000111000000000011111001010110010001110000000000110110010101100100011100000000001011100101011001000111000000000010011001010110010001110000000000011110010101100100011100000000000101100101011001000111000000000000111001010110010001110000000000000 s
b110100000000011011110111111001010110010001110000000001111110010101100100011100000000011101100101011001000111000000000110111001010110010001110000000001100110010101100100011100000000010111100101011001000111000000000101011001010110010001110000000001001110010101100100011100000000010001100101011001000111000000000011111001010110010001110000000000110110010101100100011100000000001011100101011001000111000000000010011001010110010001110000000000011110010101100100011100000000000101100101011001000111000000000000111001010110010001110000000000000 a"
b111000000000010101011110011001010110010001110000000001111110010101100100011100000000011101100101011001000111000000000110111001010110010001110000000001100110010101100100011100000000010111100101011001000111000000000101011001010110010001110000000001001110010101100100011100000000010001100101011001000111000000000011111001010110010001110000000000110110010101100100011100000000001011100101011001000111000000000010011001010110010001110000000000011110010101100100011100000000000101100101011001000111000000000000111001010110010001110000000000000 x
b111000000000010101011110011001010110010001110000000001111110010101100100011100000000011101100101011001000111000000000110111001010110010001110000000001100110010101100100011100000000010111100101011001000111000000000101011001010110010001110000000001001110010101100100011100000000010001100101011001000111000000000011111001010110010001110000000000110110010101100100011100000000001011100101011001000111000000000010011001010110010001110000000000011110010101100100011100000000000101100101011001000111000000000000111001010110010001110000000000000 ]"
1{
0|
0["
0_"
0c"
0g"
09
1>
#100000
0>
#105000
b0 C"
1%
0{
b100 A"
1>
#110000
0>
#115000
0%
b0 A"
1>
#120000
0>
#125000
1>
